{
    "fluentMethods": true,
    "relationships": [
        {
            "relationshipName": "subsystem",
            "otherEntityName": "subsystem",
            "relationshipType": "many-to-one",
            "otherEntityField": "id"
        }
    ],
    "fields": [
        {
            "fieldName": "name",
            "fieldType": "String"
        },
        {
            "fieldName": "description",
            "fieldType": "String"
        },
        {
            "fieldName": "status",
            "fieldType": "JesJobStatus",
            "fieldValues": "ACTIVE,STOPPED"
        },
        {
            "fieldName": "type",
            "fieldType": "SubsystemJobType",
            "fieldValues": "IMS_CONNECT,IMS_CONTROL_REGION,IMS_MPR"
        },
        {
            "fieldName": "startedAt",
            "fieldType": "ZonedDateTime"
        },
        {
            "fieldName": "log",
            "fieldType": "byte[]",
            "fieldTypeBlobContent": "text"
        }
    ],
    "changelogDate": "20180514111928",
    "dto": "mapstruct",
    "service": "serviceImpl",
    "entityTableName": "subsystem_job",
    "jpaMetamodelFiltering": false,
    "pagination": "pagination"
}
